result
…
Ticket

This is the Ticket number. Several passengers are fond to have the
same ticket number, This could mean that family members or others who
rode together may have shared tickets.

## [1] 929

## # A tibble: 929 × 2
## # Groups:   Ticket [929]
##    Ticket           n
##    <chr>        <int>
##  1 CA. 2343        11
##  2 1601             8
##  3 CA 2144          8
##  4 3101295          7
##  5 347077           7
##  6 347082           7
##  7 PC 17608         7
##  8 S.O.C. 14879     7
##  9 113781           6
## 10 19950            6
## # … with 919 more rows

## # A tibble: 930 × 3
## # Groups:   Ticket, Fare [930]
##    Ticket        Fare     n
##    <chr>        <dbl> <int>
##  1 CA. 2343      69.6    11
##  2 1601          56.5     8
##  3 CA 2144       46.9     8
##  4 3101295       39.7     7
##  5 347077        31.4     7
##  6 347082        31.3     7
##  7 PC 17608     262.      7
##  8 S.O.C. 14879  73.5     7
##  9 113781       152.      6
## 10 19950        263       6
## # … with 920 more rows
…
